{
	"com.imersia.channel":
	{
		"com.telluriq.contracts":
		[
			{
				"name": "livefeed",
				"text": "Live Feed",
				"type": "text",
				"hide": false,
				"default": "",
				"label": "Link to live data and other information relevant to these contracts."
			}
		],
		"com.imersia.channel":
		[
			{
				"name": "name",
				"text": "Channel Name",
				"type": "text",
				"hide": false,
				"default": "",
				"label": "A suitable name for the channel"
			}
		]
	},
	"com.imersia.geobot":
	{
		"com.telluriq.brc":
		[
			{
			  "name": "threshold",
			  "text": "Threshold",
			  "type": "number",
			  "hide": false,
			  "default": 0,
			  "label": "Threshold value of total insurance claims accepted for this contract to activate."
			},
			{
			  "name": "expiry",
			  "text": "Expiry Date",
			  "type": "text",
			  "hide": false,
			  "default": "",
			  "label": "Date at which this contract expires."
		  	}
		]
	}
}
