{
	"com.imersia.channel":
	{
		"com.exploremine.journey": [

		],
		"com.imersia.default": [

		],
		"com.imersia.geophoto": [

		],
		"com.imersia.storyline": [

		],
		"com.imersia.virtuandize": [

		],
		"com.imersia.treasurehunt": [

		],
		"com.imersia.contextad": [

		],
		"com.imersia.controller": [

		]
	},
	"com.imersia.geobot":
	{
	  "com.exploremine.poi": [
		{
  	      "name": "touch",
  	      "text": "Touch",
  	      "type": "dropdown",
  	      "default": "touch",
  	      "label": "Action when touched.",
  	      "parameters": [
  	        {
  	          "text": "touch",
  	          "value": "touch"
  	        },
  	        {
  	          "text": "webapp",
  	          "value": "webapp"
  	        }
  	      ]
  	    }
	  ],
	  "com.imersia.default": [
	    {
	      "name": "touch",
	      "text": "Touch",
	      "type": "dropdown",
	      "default": "touch",
	      "label": "Action when touched.",
	      "parameters": [
	        {
	          "text": "touch",
	          "value": "touch"
	        },
	        {
	          "text": "webapp",
	          "value": "webapp"
	        }
	      ]
	    }
	  ],
	  "com.imersia.sprite": [
	    {
	      "name": "touch",
	      "text": "Touch",
	      "type": "dropdown",
	      "label": "Action when touched.",
	      "default": "touch",
	      "parameters": [
	        {
	          "text": "touch",
	          "value": "touch"
	        },
	        {
	          "text": "play",
	          "value": "play"
	        },
	        {
	          "text": "webapp",
	          "value": "webapp"
	        }
	      ]
	    },
	    {
	      "name": "imageurl",
	      "text": "Image",
	      "type": "filename",
	      "default": "",
	      "label": "Click here or drag a sprite sheet to load."
	    },
	    {
	      "name": "playonstart",
	      "text": "Play on start",
	      "type": "checkbox",
	      "default": false,
	      "label": "Start playing when sprite is loaded."
	    },
	    {
	      "name": "repeat",
	      "text": "Repeat",
	      "type": "checkbox",
	      "default": false,
	      "label": "Repeat the animation once playing."
	    },
	    {
	      "name": "trigger",
	      "text": "Trigger",
	      "type": "text",
	      "default": "",
	      "label": "Play the animation when the trigger is received."
	    },
	    {
	      "name": "scale",
	      "text": "Scale",
	      "type": "number",
	      "default": 1,
	      "label": "Scale factor for image - greater than zero."
	    },
	    {
	      "name": "width",
	      "text": "Width",
	      "type": "number",
	      "default": 1,
	      "label": "Number of sprite images horizontally - greater than or equal to one."
	    },
	    {
	      "name": "height",
	      "text": "Height",
	      "type": "number",
	      "default": 1,
	      "label": "Number of sprite images vertically - greater than or equal to one."
	    },
	    {
	      "name": "length",
	      "text": "Length",
	      "type": "number",
	      "default": 1,
	      "label": "Total number of sprite images on the sheet - greater than or equal to one."
	    },
	    {
	      "name": "framerate",
	      "text": "Framerate",
	      "type": "number",
	      "default": 10,
	      "label": "Number of frames per second - greater than or equal to zero."
	    }
	  ],
	  "com.imersia.imagemarker":
	  [
		{
  	      "name": "imageurl",
  	      "text": "Marker Image",
  	      "type": "filename",
  	      "default": "",
  	      "label": "Click here or drag an image (jpg or png) of the marker to be recognized."
  	    },
		{
			"name": "videourl",
			"text": "Video",
			"type": "filename",
			"default": "",
			"label": "Click here or drage a video (mp4) of the video to play on the marker."
		},
		{
		  "name": "playonstart",
		  "text": "Play on start",
		  "type": "checkbox",
		  "default": false,
		  "label": "Start playing when video is loaded."
		},
		{
		  "name": "repeat",
		  "text": "Repeat",
		  "type": "checkbox",
		  "default": false,
		  "label": "Repeat the video once playing."
		},
		{
		  "name": "trigger",
		  "text": "Trigger",
		  "type": "text",
		  "default": "",
		  "label": "Play the video when the trigger is received."
		}
	  ]
	}
}
