{
    "com.imersia.geobot":
    [
        {
          "name": "imageurl",
          "text": "Image",
          "type": "filename",
          "default": "",
          "label": "Click here or drag an image to load."
        },
        {
          "name": "name",
          "text": "Name",
          "type": "text",
          "default": "",
          "label": "Geobot name."
        },
        {
          "name": "description",
          "text": "Description",
          "type": "textarea",
          "default": "",
          "label": ""
        },
        {
          "name": "class",
          "text": "Geobot class",
          "type": "dropdown-edit",
          "default": "",
          "label": "",
          "parameters": "com.imersia.geobot"
        },
        {
          "name": "location",
          "text": "Location",
          "type": "object",
          "object": [
              {
                  "name": "latitude",
                  "text": "Latitude",
                  "type": "number",
                  "default": 0,
                  "label": "Latitude (north / south) - ranges from -90 to +90"
              },
              {
                  "name": "longitude",
                  "text": "Longitude",
                  "type": "number",
                  "default": 180,
                  "label": "Longitude (east / west) - ranges from -180 to +180"
              },
              {
                  "name": "altitude",
                  "text": "Altitude",
                  "type": "number",
                  "default": 0,
                  "label": "Height above ground."
              },
              {
                  "name": "geohash",
                  "text": "Geohash",
                  "type": "text",
                  "default": "",
                  "label": "Geohash representation of latitude and longitude."
              }
          ]
        },
        {
          "name": "hidden",
          "text": "Hidden",
          "type": "checkbox",
          "default": false,
          "label": "Hide this geobot from the public."
        },
        {
          "name": "radius",
          "text": "Radius",
          "type": "number",
          "default": 0,
          "label": "Radius (m) within which Geobot is visible (zero for no limit)."
        },
        {
          "name": "geobotid",
          "text": "GeobotID",
          "type": "text",
          "default": "",
          "locked": true,
          "label": ""
        }
    ]
}
